<?xml version="1.0" standalone="no"?>
<!DOCTYPE svg PUBLIC "-//W3C//DTD SVG 20010904//EN"
 "http://www.w3.org/TR/2001/REC-SVG-20010904/DTD/svg10.dtd">
<svg version="1.0" xmlns="http://www.w3.org/2000/svg"
 width="522.000000pt" height="522.000000pt" viewBox="0 0 522.000000 522.000000"
 preserveAspectRatio="xMidYMid meet">
<metadata>
Created by potrace 1.11, written by Peter Selinger 2001-2013
</metadata>
<g transform="translate(0.000000,522.000000) scale(0.100000,-0.100000)"
fill="#000000" stroke="none">
<path d="M3229 3341 c-6 -30 -5 -58 3 -68 5 -7 46 -11 111 -11 56 0 96 3 88 6
-8 2 -57 22 -108 42 -51 21 -94 35 -94 31z"/>
<path d="M3475 3260 c-4 -6 22 -18 85 -40 44 -15 68 -25 100 -38 14 -6 43 -16
65 -23 22 -7 46 -18 53 -23 9 -7 16 -5 23 5 24 38 -8 106 -56 114 -42 8 -266
11 -270 5z"/>
<path d="M4484 2709 c-60 -61 -130 -133 -156 -159 -27 -26 -48 -50 -48 -53 0
-11 84 23 125 50 56 36 126 112 153 167 22 44 44 106 37 106 -1 0 -52 -50
-111 -111z"/>
<path d="M4647 2132 c-10 -2 -18 -14 -18 -28 -1 -13 -2 -27 -3 -31 -1 -5 -5
-26 -10 -48 -4 -21 -14 -52 -22 -67 -8 -15 -12 -28 -9 -28 3 0 30 24 61 53 30
28 74 68 96 89 22 20 38 42 36 49 -4 12 -90 19 -131 11z"/>
<path d="M5085 2130 c-15 -4 -21 -15 -23 -45 -4 -61 -13 -118 -20 -130 -10
-17 29 16 107 92 42 40 73 75 70 78 -8 8 -110 12 -134 5z"/>
<path d="M4868 1777 c-250 -243 -509 -491 -521 -500 -19 -13 53 -1 108 18 70
24 204 91 245 123 50 39 161 151 196 197 40 53 96 165 123 243 11 34 21 64 21
67 0 16 -30 -10 -172 -148z"/>
<path d="M3898 1914 c-4 -3 -12 -7 -20 -8 -7 -2 -22 -7 -33 -11 -11 -4 -49
-19 -85 -32 -36 -13 -81 -31 -100 -38 -40 -16 -202 -78 -340 -130 -52 -20
-104 -40 -115 -45 -18 -7 -168 -64 -440 -167 -49 -18 -99 -38 -110 -42 -11 -5
-46 -18 -77 -30 -98 -36 -172 -63 -203 -76 -37 -16 -68 -28 -75 -29 -6 -2
-132 -50 -175 -67 -16 -7 -32 -13 -35 -14 -3 -1 -18 -7 -33 -13 -16 -7 -35
-12 -43 -12 -8 0 -14 -5 -14 -12 0 -6 -3 -9 -6 -5 -4 3 -23 -1 -43 -9 -20 -9
-88 -35 -151 -59 -63 -24 -205 -78 -315 -119 -270 -103 -254 -93 -233 -143 6
-15 12 -30 12 -33 4 -25 66 -107 108 -145 85 -77 177 -113 287 -113 67 0 160
24 203 52 14 9 42 17 63 18 30 1 43 -4 62 -26 23 -27 23 -28 23 -297 l0 -269
723 0 c559 0 735 4 778 14 145 33 283 140 346 267 41 84 47 104 59 189 4 33 9
1324 5 1398 -1 13 -13 16 -23 6z"/>
<path d="M4460 1809 c-80 -75 -79 -88 1 -27 38 29 105 108 92 108 -4 0 -46
-36 -93 -81z"/>
<path d="M4336 1711 c-6 -9 -88 -25 -131 -26 -17 0 -21 -9 -25 -63 -3 -35 -3
-65 0 -67 3 -2 40 29 82 70 43 40 83 75 90 77 9 3 9 6 1 11 -7 4 -14 3 -17 -2z"/>
<path d="M4223 1252 l-41 -3 -4 -61 c-1 -33 0 -62 3 -64 3 -2 39 28 80 67 l74
69 -35 -2 c-19 -2 -54 -4 -77 -6z"/>
<path d="M1815 483 c-101 -30 -388 -102 -467 -118 -16 -3 -40 -8 -55 -11 -16
-4 -37 -8 -48 -9 -11 -2 -20 -4 -20 -5 0 -2 -9 -4 -135 -28 -58 -11 -123 -23
-145 -26 -22 -4 -47 -8 -55 -11 -15 -4 -72 -13 -125 -20 -28 -4 -91 -14 -125
-20 -44 -8 -126 -19 -131 -17 -4 1 -33 -3 -65 -8 -52 -8 -133 -17 -227 -25
-15 -2 -30 -5 -33 -7 -11 -12 120 -94 177 -112 13 -5 31 -11 39 -14 8 -3 351
-8 763 -9 l747 -3 0 229 c0 127 -3 232 -7 234 -5 2 -44 -7 -88 -20z"/>
</g>
</svg>
